…
1.  Сколько уникальных рас персонажей(species) представлено в данных?

<!-- -->

    unique(starwars['species'], incomparables = FALSE)

    ## # A tibble: 38 × 1
    ##    species       
    ##    <chr>         
    ##  1 Human         
    ##  2 Droid         
    ##  3 Wookiee       
    ##  4 Rodian        
    ##  5 Hutt          
    ##  6 Yoda's species
    ##  7 Trandoshan    
    ##  8 Mon Calamari  
    ##  9 Ewok          
    ## 10 Sullustan     
    ## # … with 28 more rows
…
1.  Подсчитать ИМТ(индекс массы тела) для всех персонажей. Формула: i =
    масса / рост^2 Ответ:

<!-- -->

    starwars %>%
      mutate(name, imt = mass/((height/100)^2))%>%
      select(name, imt)

    ## # A tibble: 87 × 2
    ##    name                 imt
    ##    <chr>              <dbl>
    ##  1 Luke Skywalker      26.0
    ##  2 C-3PO               26.9
    ##  3 R2-D2               34.7
    ##  4 Darth Vader         33.3
    ##  5 Leia Organa         21.8
    ##  6 Owen Lars           37.9
    ##  7 Beru Whitesun lars  27.5
    ##  8 R5-D4               34.0
    ##  9 Biggs Darklighter   25.1
    ## 10 Obi-Wan Kenobi      23.2
    ## # … with 77 more rows
…
    ## # A tibble: 1 × 2
    ##   eye_color count
    ##   <chr>     <int>
    ## 1 brown        21

Ответ: brown

1.  Подсчитать среднюю длину имени в каждой расе вселенной Звездных войн

Ответ:

    mean_name_DF <- starwars %>% filter(!is.na(species)) %>% group_by(species)  %>% summarise(mean_lenght=mean(nchar(name)))
    mean_name_DF

    ## # A tibble: 37 × 2
    ##    species   mean_lenght
    ##    <chr>           <dbl>
    ##  1 Aleena          13   
    ##  2 Besalisk        15   
    ##  3 Cerean          12   
    ##  4 Chagrian        10   
    ##  5 Clawdite        10   
    ##  6 Droid            4.83
    ##  7 Dug              7   
    ##  8 Ewok            21   
    ##  9 Geonosian       17   
    ## 10 Gungan          11.7 
    ## # … with 27 more rows
